{
	"partitions" : [
		{
			"name" : "Top",
			"pins" : [
				{
					"name" : "product[0]",
					"strict" : false
				},
				{
					"name" : "product[1]",
					"strict" : false
				},
				{
					"name" : "product[2]",
					"strict" : false
				},
				{
					"name" : "product[3]",
					"strict" : false
				},
				{
					"name" : "product[4]",
					"strict" : false
				},
				{
					"name" : "product[5]",
					"strict" : false
				},
				{
					"name" : "product[6]",
					"strict" : false
				},
				{
					"name" : "product[7]",
					"strict" : false
				},
				{
					"name" : "product[8]",
					"strict" : false
				},
				{
					"name" : "product[9]",
					"strict" : false
				},
				{
					"name" : "product[10]",
					"strict" : false
				},
				{
					"name" : "product[11]",
					"strict" : false
				},
				{
					"name" : "product[12]",
					"strict" : false
				},
				{
					"name" : "product[13]",
					"strict" : false
				},
				{
					"name" : "data_ready",
					"strict" : false
				},
				{
					"name" : "clk",
					"strict" : false
				},
				{
					"name" : "input_2[1]",
					"strict" : false
				},
				{
					"name" : "reset",
					"strict" : false
				},
				{
					"name" : "input_2[2]",
					"strict" : false
				},
				{
					"name" : "input_2[3]",
					"strict" : false
				},
				{
					"name" : "input_2[4]",
					"strict" : false
				},
				{
					"name" : "input_2[5]",
					"strict" : false
				},
				{
					"name" : "input_2[6]",
					"strict" : false
				},
				{
					"name" : "input_2[7]",
					"strict" : false
				},
				{
					"name" : "start",
					"strict" : false
				},
				{
					"name" : "input_2[0]",
					"strict" : false
				},
				{
					"name" : "input_1[0]",
					"strict" : false
				},
				{
					"name" : "input_1[1]",
					"strict" : false
				},
				{
					"name" : "input_1[2]",
					"strict" : false
				},
				{
					"name" : "input_1[3]",
					"strict" : false
				},
				{
					"name" : "input_1[4]",
					"strict" : false
				},
				{
					"name" : "input_1[5]",
					"strict" : false
				},
				{
					"name" : "input_1[6]",
					"strict" : false
				},
				{
					"name" : "input_1[7]",
					"strict" : false
				}
			]
		}
	]
}