{
	"partitions" : [
		{
			"name" : "Top",
			"pins" : [
				{
					"name" : "decode[0]",
					"strict" : false
				},
				{
					"name" : "decode[1]",
					"strict" : false
				},
				{
					"name" : "decode[2]",
					"strict" : false
				},
				{
					"name" : "decode[3]",
					"strict" : false
				},
				{
					"name" : "decode[4]",
					"strict" : false
				},
				{
					"name" : "decode[5]",
					"strict" : false
				},
				{
					"name" : "decode[6]",
					"strict" : false
				},
				{
					"name" : "decode[7]",
					"strict" : false
				},
				{
					"name" : "code[2]",
					"strict" : false
				},
				{
					"name" : "code[0]",
					"strict" : false
				},
				{
					"name" : "code[1]",
					"strict" : false
				}
			]
		}
	]
}