00,1A,3B,1
01,1A,3B,0
02,1A,3B,0
03,1A,3B,0
04,1A,3B,0
05,1A,3B,0
06,1A,3B,0
07,1A,3B,0
08,1A,3B,0
09,1A,3B,0
0A,1A,3B,0
0B,1A,3B,0
0C,1A,3B,0
00,4C,5E,1
01,4C,5E,0
02,4C,5E,0
03,4C,5E,0
04,4C,5E,0
05,4C,5E,0
06,4C,5E,0
07,4C,5E,0
08,4C,5E,0
09,4C,5E,0
0B,4C,5E,0
0C,4C,5E,0