{
	"partitions" : [
		{
			"name" : "Top",
			"pins" : [
				{
					"name" : "out_seg_1[0]",
					"strict" : false
				},
				{
					"name" : "out_seg_1[1]",
					"strict" : false
				},
				{
					"name" : "out_seg_1[2]",
					"strict" : false
				},
				{
					"name" : "out_seg_1[3]",
					"strict" : false
				},
				{
					"name" : "out_seg_1[4]",
					"strict" : false
				},
				{
					"name" : "out_seg_1[5]",
					"strict" : false
				},
				{
					"name" : "out_seg_1[6]",
					"strict" : false
				},
				{
					"name" : "out_seg_0[0]",
					"strict" : false
				},
				{
					"name" : "out_seg_0[1]",
					"strict" : false
				},
				{
					"name" : "out_seg_0[2]",
					"strict" : false
				},
				{
					"name" : "out_seg_0[3]",
					"strict" : false
				},
				{
					"name" : "out_seg_0[4]",
					"strict" : false
				},
				{
					"name" : "out_seg_0[5]",
					"strict" : false
				},
				{
					"name" : "out_seg_0[6]",
					"strict" : false
				},
				{
					"name" : "product_out",
					"strict" : false
				},
				{
					"name" : "quarter_out",
					"strict" : false
				},
				{
					"name" : "dime_out",
					"strict" : false
				},
				{
					"name" : "nickel_out",
					"strict" : false
				},
				{
					"name" : "clk",
					"strict" : false
				},
				{
					"name" : "reset",
					"strict" : false
				},
				{
					"name" : "quarter_in",
					"strict" : false
				},
				{
					"name" : "dime_in",
					"strict" : false
				},
				{
					"name" : "nickel_in",
					"strict" : false
				},
				{
					"name" : "return_money",
					"strict" : false
				}
			]
		}
	]
}